분석하는 O2 - R tidyverse lec1
…
# 일요일에 운전을 한 여자
moving_data <- moving_data %>% 
  janitor::clean_names() %>% 
  filter(yoil == '일',
         seongbyeol == 'F') 

# 출발코드가 11010 이면서 도착코드가 11010인 data
moving_data %>% 
  filter(chulbal_sigungu_kodeu == 11010,
         dochag_sigungu_kodeu == 11010)

# A tibble: 117 × 10
   daesang…¹ yoil  docha…² chulb…³ docha…⁴ seong…⁵ nai   idong…⁶ pyeon…⁷ idong…⁸
       <dbl> <chr> <chr>     <dbl>   <dbl> <chr>   <chr> <chr>     <dbl> <chr>  
 1    202107 일    09        11010   11010 F       00    HE           10 55.41  
 2    202107 일    09        11010   11010 F       10    HW           10 5.9    
 3    202107 일    09        11010   11010 F       10    HE           10 41.5   
 4    202107 일    09        11010   11010 F       10    EE           20 11.98  
 5    202107 일    09        11010   11010 F       10    HH           20 5.93   
 6    202107 일    09        11010   11010 F       15    EH           10 6.05   
 7    202107 일    09        11010   11010 F       15    WH           10 4.04   
 8    202107 일    09        11010   11010 F       15    EE           10 20.39  
 9    202107 일    09        11010   11010 F       15    HE           10 76.78  
10    202107 일    09        11010   11010 F       15    HW           10 48.43  
# … with 107 more rows, and abbreviated variable names ¹​daesang_yeon_wol,
#   ²​dochagsigan, ³​chulbal_sigungu_kodeu, ⁴​dochag_sigungu_kodeu, ⁵​seongbyeol,
#   ⁶​idong_yuhyeong, ⁷​pyeong_gyun_idong_sigan_bun, ⁸​idong_ingu_hab

# 나이가 20~40대인 data
moving_data %>% 
  filter(between(nai, 20,40))

# A tibble: 25,761 × 10
   daesang…¹ yoil  docha…² chulb…³ docha…⁴ seong…⁵ nai   idong…⁶ pyeon…⁷ idong…⁸
       <dbl> <chr> <chr>     <dbl>   <dbl> <chr>   <chr> <chr>     <dbl> <chr>  
 1    202107 일    09        11010   11010 F       20    WH           30 10.83  
 2    202107 일    09        11010   11010 F       20    EH           60 8.68   
 3    202107 일    09        11010   11010 F       20    EW           10 *      
 4    202107 일    09        11010   11010 F       20    WW           70 *      
 5    202107 일    09        11010   11010 F       20    WE           50 *      
 6    202107 일    09        11010   11010 F       20    HE           10 100.14 
 7    202107 일    09        11010   11010 F       20    HH           10 8.67   
 8    202107 일    09        11010   11010 F       20    HW           10 143.46 
 9    202107 일    09        11010   11010 F       20    EE           10 43.69  
10    202107 일    09        11010   11010 F       25    HH           20 16.16  
# … with 25,751 more rows, and abbreviated variable names ¹​daesang_yeon_wol,
#   ²​dochagsigan, ³​chulbal_sigungu_kodeu, ⁴​dochag_sigungu_kodeu, ⁵​seongbyeol,
#   ⁶​idong_yuhyeong, ⁷​pyeong_gyun_idong_sigan_bun, ⁸​idong_ingu_hab
…
내맘대로 행을 정렬(arrange) 하는 방법

정렬 기준 우선 순위 순서대로 설정

내림차순 : desc()

moving_data %>% 
  select(dochagsigan,
         pyeong_gyun_idong_sigan_bun) %>% 
  arrange(dochagsigan, desc(pyeong_gyun_idong_sigan_bun))

# A tibble: 62,076 × 2
   dochagsigan pyeong_gyun_idong_sigan_bun
   <chr>                             <dbl>
 1 09                                  600
 2 09                                  580
 3 09                                  550
 4 09                                  490
 5 09                                  470
 6 09                                  470
 7 09                                  470
 8 09                                  460
 9 09                                  460
10 09                                  450
# … with 62,066 more rows
…
사용가능 연산자들

: , ! , & , | , c( ) 사용

편리한 함수들

everything( ), last_col( )

starts_with( ),ends_with( ),contains( )

# sido 변수를 1열에 배치해주고, 나머지는 순차적으로! 
reference_data %>% 
  select(sido, everything())  

# A tibble: 91 × 4
    sido sigungu name     full_name          
   <dbl>   <dbl> <chr>    <chr>              
 1 11000   11010 종로구   서울특별시 종로구  
 2 11000   11020 중구     서울특별시 중구    
 3 11000   11030 용산구   서울특별시 용산구  
 4 11000   11040 성동구   서울특별시 성동구  
 5 11000   11050 광진구   서울특별시 광진구  
 6 11000   11060 동대문구 서울특별시 동대문구
 7 11000   11070 중랑구   서울특별시 중랑구  
 8 11000   11080 성북구   서울특별시 성북구  
 9 11000   11090 강북구   서울특별시 강북구  
10 11000   11100 도봉구   서울특별시 도봉구  
# … with 81 more rows

# name 변수와 last col인 full_name 변수를 가져와줘!
reference_data %>% 
  select(name, last_col())

# A tibble: 91 × 2
   name     full_name          
   <chr>    <chr>              
 1 종로구   서울특별시 종로구  
 2 중구     서울특별시 중구    
 3 용산구   서울특별시 용산구  
 4 성동구   서울특별시 성동구  
 5 광진구   서울특별시 광진구  
 6 동대문구 서울특별시 동대문구
 7 중랑구   서울특별시 중랑구  
 8 성북구   서울특별시 성북구  
 9 강북구   서울특별시 강북구  
10 도봉구   서울특별시 도봉구  
# … with 81 more rows
…
moving_data %>% 
  mutate(idong_sigan_hr = pyeong_gyun_idong_sigan_bun / 60) %>%
  select(idong_sigan_hr, everything())

# A tibble: 62,076 × 12
   idong_sig…¹  year daesa…² yoil  docha…³ chulb…⁴ docha…⁵ seong…⁶ nai   idong…⁷
         <dbl> <int>   <dbl> <chr> <chr>     <dbl>   <dbl> <chr>   <chr> <chr>  
 1       0.167  2021  202107 일    09        11010   11010 F       00    HE     
 2       0.167  2021  202107 일    09        11010   11010 F       10    HW     
 3       0.167  2021  202107 일    09        11010   11010 F       10    HE     
 4       0.333  2021  202107 일    09        11010   11010 F       10    EE     
 5       0.333  2021  202107 일    09        11010   11010 F       10    HH     
 6       0.167  2021  202107 일    09        11010   11010 F       15    EH     
 7       0.167  2021  202107 일    09        11010   11010 F       15    WH     
 8       0.167  2021  202107 일    09        11010   11010 F       15    EE     
 9       0.167  2021  202107 일    09        11010   11010 F       15    HE     
10       0.167  2021  202107 일    09        11010   11010 F       15    HW     
# … with 62,066 more rows, 2 more variables: pyeong_gyun_idong_sigan_bun <dbl>,
#   idong_ingu_hab <chr>, and abbreviated variable names ¹​idong_sigan_hr,
#   ²​daesang_yeon_wol, ³​dochagsigan, ⁴​chulbal_sigungu_kodeu,
#   ⁵​dochag_sigungu_kodeu, ⁶​seongbyeol, ⁷​idong_yuhyeong
…
# df %>% rename(a_new = A) 

모든 열이름 대문자로 바꾸기

# df %>% rename_with(toupper)

실습하기

moving_data %>% 
  rename(avg_time_min= pyeong_gyun_idong_sigan_bun,
         ppl_sum = idong_ingu_hab) %>% 
  select(avg_time_min, ppl_sum)

# A tibble: 62,076 × 2
   avg_time_min ppl_sum
          <dbl> <chr>  
 1           10 55.41  
 2           10 5.9    
 3           10 41.5   
 4           20 11.98  
 5           20 5.93   
 6           10 6.05   
 7           10 4.04   
 8           10 20.39  
 9           10 76.78  
10           10 48.43  
# … with 62,066 more rows
…
.before , .after 옵션

last_col()함수

변수 타입으로 정렬가능

where(is.character) 사용

실습하기

# 이동 인구 합 앞으로
moving_data %>% 
  relocate(idong_ingu_hab)

# A tibble: 62,076 × 11
   idong_ing…¹  year daesa…² yoil  docha…³ chulb…⁴ docha…⁵ seong…⁶ nai   idong…⁷
   <chr>       <int>   <dbl> <chr> <chr>     <dbl>   <dbl> <chr>   <chr> <chr>  
 1 55.41        2021  202107 일    09        11010   11010 F       00    HE     
 2 5.9          2021  202107 일    09        11010   11010 F       10    HW     
 3 41.5         2021  202107 일    09        11010   11010 F       10    HE     
 4 11.98        2021  202107 일    09        11010   11010 F       10    EE     
 5 5.93         2021  202107 일    09        11010   11010 F       10    HH     
 6 6.05         2021  202107 일    09        11010   11010 F       15    EH     
 7 4.04         2021  202107 일    09        11010   11010 F       15    WH     
 8 20.39        2021  202107 일    09        11010   11010 F       15    EE     
 9 76.78        2021  202107 일    09        11010   11010 F       15    HE     
10 48.43        2021  202107 일    09        11010   11010 F       15    HW     
# … with 62,066 more rows, 1 more variable: pyeong_gyun_idong_sigan_bun <dbl>,
#   and abbreviated variable names ¹​idong_ingu_hab, ²​daesang_yeon_wol,
#   ³​dochagsigan, ⁴​chulbal_sigungu_kodeu, ⁵​dochag_sigungu_kodeu, ⁶​seongbyeol,
#   ⁷​idong_yuhyeong

# 문자열 타입 앞으로
moving_data %>% 
  relocate(where(is.character))

# A tibble: 62,076 × 11
   yoil  dochagsigan seong…¹ nai   idong…² idong…³  year daesa…⁴ chulb…⁵ docha…⁶
   <chr> <chr>       <chr>   <chr> <chr>   <chr>   <int>   <dbl>   <dbl>   <dbl>
 1 일    09          F       00    HE      55.41    2021  202107   11010   11010
 2 일    09          F       10    HW      5.9      2021  202107   11010   11010
 3 일    09          F       10    HE      41.5     2021  202107   11010   11010
 4 일    09          F       10    EE      11.98    2021  202107   11010   11010
 5 일    09          F       10    HH      5.93     2021  202107   11010   11010
 6 일    09          F       15    EH      6.05     2021  202107   11010   11010
 7 일    09          F       15    WH      4.04     2021  202107   11010   11010
 8 일    09          F       15    EE      20.39    2021  202107   11010   11010
 9 일    09          F       15    HE      76.78    2021  202107   11010   11010
10 일    09          F       15    HW      48.43    2021  202107   11010   11010
# … with 62,066 more rows, 1 more variable: pyeong_gyun_idong_sigan_bun <dbl>,
#   and abbreviated variable names ¹​seongbyeol, ²​idong_yuhyeong,
#   ³​idong_ingu_hab, ⁴​daesang_yeon_wol, ⁵​chulbal_sigungu_kodeu,
#   ⁶​dochag_sigungu_kodeu
